<svg width="24" height="24" viewBox="0 0 24 24" fill="none" xmlns="http://www.w3.org/2000/svg">
<path fill-rule="evenodd" clip-rule="evenodd" d="M17.8337 6.16625C21.0554 9.38838 21.0554 14.6116 17.8337 17.8337C14.6121 21.0554 9.38792 21.0554 6.16625 17.8337C2.94458 14.6116 2.94458 9.38838 6.16625 6.16625C9.38792 2.94458 14.6121 2.94458 17.8337 6.16625Z" stroke="white" stroke-width="1.5" stroke-linecap="round" stroke-linejoin="round"/>
<path fill-rule="evenodd" clip-rule="evenodd" d="M11.9888 8C11.2874 8 10.6001 8.64865 10.6001 9.60346C10.6001 10.0177 10.2643 10.3535 9.8501 10.3535C9.43588 10.3535 9.1001 10.0177 9.1001 9.60346C9.1001 7.95874 10.327 6.5 11.9888 6.5C13.6499 6.5 14.8779 7.95844 14.8779 9.60346C14.8779 10.3998 14.5977 11.1365 14.1251 11.6936C14.1196 11.7 14.114 11.7064 14.1083 11.7126L12.8207 13.1299V13.9722C12.8207 14.3864 12.485 14.7222 12.0707 14.7222C11.6565 14.7222 11.3207 14.3864 11.3207 13.9722V12.8401C11.3207 12.6536 11.3902 12.4738 11.5156 12.3358L12.9887 10.7143C13.2252 10.4314 13.3779 10.0428 13.3779 9.60346C13.3779 8.64896 12.69 8 11.9888 8Z" fill="white"/>
<path d="M12.8207 16.8171C12.8207 17.2313 12.485 17.5671 12.0707 17.5671C11.6565 17.5671 11.3207 17.2313 11.3207 16.8171C11.3207 16.4028 11.6565 16.0671 12.0707 16.0671C12.485 16.0671 12.8207 16.4028 12.8207 16.8171Z" fill="white"/>
</svg>
